fare_id,price,currency_type,payment_method,transfers,agency_id,transfer_duration
LRT-2-S01-S02,15.00,PHP,1,0,,
LRT-2-S01-S03,15.00,PHP,1,0,,
LRT-2-S01-S04,15.00,PHP,1,0,,
LRT-2-S01-S05,20.00,PHP,1,0,,
LRT-2-S01-S06,20.00,PHP,1,0,,
LRT-2-S01-S07,20.00,PHP,1,0,,
LRT-2-S01-S08,20.00,PHP,1,0,,
LRT-2-S01-S09,25.00,PHP,1,0,,
LRT-2-S01-S10,25.00,PHP,1,0,,
LRT-2-S01-S11,25.00,PHP,1,0,,
LRT-2-S02-S01,15.00,PHP,1,0,,
LRT-2-S02-S03,15.00,PHP,1,0,,
LRT-2-S02-S04,15.00,PHP,1,0,,
LRT-2-S02-S05,15.00,PHP,1,0,,
LRT-2-S02-S06,20.00,PHP,1,0,,
LRT-2-S02-S07,20.00,PHP,1,0,,
LRT-2-S02-S08,20.00,PHP,1,0,,
LRT-2-S02-S09,20.00,PHP,1,0,,
LRT-2-S02-S10,25.00,PHP,1,0,,
LRT-2-S02-S11,25.00,PHP,1,0,,
LRT-2-S03-S01,15.00,PHP,1,0,,
LRT-2-S03-S02,15.00,PHP,1,0,,
LRT-2-S03-S04,15.00,PHP,1,0,,
LRT-2-S03-S05,15.00,PHP,1,0,,
LRT-2-S03-S06,15.00,PHP,1,0,,
LRT-2-S03-S07,20.00,PHP,1,0,,
LRT-2-S03-S08,20.00,PHP,1,0,,
LRT-2-S03-S09,20.00,PHP,1,0,,
LRT-2-S03-S10,20.00,PHP,1,0,,
LRT-2-S03-S11,25.00,PHP,1,0,,
LRT-2-S04-S01,15.00,PHP,1,0,,
LRT-2-S04-S02,15.00,PHP,1,0,,
LRT-2-S04-S03,15.00,PHP,1,0,,
LRT-2-S04-S05,15.00,PHP,1,0,,
LRT-2-S04-S06,15.00,PHP,1,0,,
LRT-2-S04-S07,15.00,PHP,1,0,,
LRT-2-S04-S08,20.00,PHP,1,0,,
LRT-2-S04-S09,20.00,PHP,1,0,,
LRT-2-S04-S10,20.00,PHP,1,0,,
LRT-2-S04-S11,25.00,PHP,1,0,,
LRT-2-S05-S01,20.00,PHP,1,0,,
LRT-2-S05-S02,15.00,PHP,1,0,,
LRT-2-S05-S03,15.00,PHP,1,0,,
LRT-2-S05-S04,15.00,PHP,1,0,,
LRT-2-S05-S06,15.00,PHP,1,0,,
LRT-2-S05-S07,15.00,PHP,1,0,,
LRT-2-S05-S08,15.00,PHP,1,0,,
LRT-2-S05-S09,20.00,PHP,1,0,,
LRT-2-S05-S10,20.00,PHP,1,0,,
LRT-2-S05-S11,20.00,PHP,1,0,,
LRT-2-S06-S01,20.00,PHP,1,0,,
LRT-2-S06-S02,20.00,PHP,1,0,,
LRT-2-S06-S03,15.00,PHP,1,0,,
LRT-2-S06-S04,15.00,PHP,1,0,,
LRT-2-S06-S05,15.00,PHP,1,0,,
LRT-2-S06-S07,15.00,PHP,1,0,,
LRT-2-S06-S08,15.00,PHP,1,0,,
LRT-2-S06-S09,15.00,PHP,1,0,,
LRT-2-S06-S10,20.00,PHP,1,0,,
LRT-2-S06-S11,20.00,PHP,1,0,,
LRT-2-S07-S01,20.00,PHP,1,0,,
LRT-2-S07-S02,20.00,PHP,1,0,,
LRT-2-S07-S03,20.00,PHP,1,0,,
LRT-2-S07-S04,15.00,PHP,1,0,,
LRT-2-S07-S05,15.00,PHP,1,0,,
LRT-2-S07-S06,15.00,PHP,1,0,,
LRT-2-S07-S08,15.00,PHP,1,0,,
LRT-2-S07-S09,15.00,PHP,1,0,,
LRT-2-S07-S10,15.00,PHP,1,0,,
LRT-2-S07-S11,20.00,PHP,1,0,,
LRT-2-S08-S01,20.00,PHP,1,0,,
LRT-2-S08-S02,20.00,PHP,1,0,,
LRT-2-S08-S03,20.00,PHP,1,0,,
LRT-2-S08-S04,20.00,PHP,1,0,,
LRT-2-S08-S05,15.00,PHP,1,0,,
LRT-2-S08-S06,15.00,PHP,1,0,,
LRT-2-S08-S07,15.00,PHP,1,0,,
LRT-2-S08-S09,15.00,PHP,1,0,,
LRT-2-S08-S10,15.00,PHP,1,0,,
LRT-2-S08-S11,15.00,PHP,1,0,,
LRT-2-S09-S01,25.00,PHP,1,0,,
LRT-2-S09-S02,20.00,PHP,1,0,,
LRT-2-S09-S03,20.00,PHP,1,0,,
LRT-2-S09-S04,20.00,PHP,1,0,,
LRT-2-S09-S05,20.00,PHP,1,0,,
LRT-2-S09-S06,15.00,PHP,1,0,,
LRT-2-S09-S07,15.00,PHP,1,0,,
LRT-2-S09-S08,15.00,PHP,1,0,,
LRT-2-S09-S10,15.00,PHP,1,0,,
LRT-2-S09-S11,15.00,PHP,1,0,,
LRT-2-S10-S01,25.00,PHP,1,0,,
LRT-2-S10-S02,25.00,PHP,1,0,,
LRT-2-S10-S03,20.00,PHP,1,0,,
LRT-2-S10-S04,20.00,PHP,1,0,,
LRT-2-S10-S05,20.00,PHP,1,0,,
LRT-2-S10-S06,20.00,PHP,1,0,,
LRT-2-S10-S07,15.00,PHP,1,0,,
LRT-2-S10-S08,15.00,PHP,1,0,,
LRT-2-S10-S09,15.00,PHP,1,0,,
LRT-2-S10-S11,15.00,PHP,1,0,,
LRT-2-S11-S01,25.00,PHP,1,0,,
LRT-2-S11-S02,25.00,PHP,1,0,,
LRT-2-S11-S03,25.00,PHP,1,0,,
LRT-2-S11-S04,25.00,PHP,1,0,,
LRT-2-S11-S05,20.00,PHP,1,0,,
LRT-2-S11-S06,20.00,PHP,1,0,,
LRT-2-S11-S07,20.00,PHP,1,0,,
LRT-2-S11-S08,15.00,PHP,1,0,,
LRT-2-S11-S09,15.00,PHP,1,0,,
LRT-2-S11-S10,15.00,PHP,1,0,,
LRT-1-S01-S02,15.00,PHP,1,0,,
LRT-1-S01-S03,15.00,PHP,1,0,,
LRT-1-S01-S04,20.00,PHP,1,0,,
LRT-1-S01-S05,20.00,PHP,1,0,,
LRT-1-S01-S06,20.00,PHP,1,0,,
LRT-1-S01-S07,20.00,PHP,1,0,,
LRT-1-S01-S08,20.00,PHP,1,0,,
LRT-1-S01-S09,20.00,PHP,1,0,,
LRT-1-S01-S10,30.00,PHP,1,0,,
LRT-1-S01-S11,30.00,PHP,1,0,,
LRT-1-S01-S12,30.00,PHP,1,0,,
LRT-1-S01-S13,30.00,PHP,1,0,,
LRT-1-S01-S14,30.00,PHP,1,0,,
LRT-1-S01-S15,30.00,PHP,1,0,,
LRT-1-S01-S16,30.00,PHP,1,0,,
LRT-1-S01-S17,30.00,PHP,1,0,,
LRT-1-S01-S18,30.00,PHP,1,0,,
LRT-1-S01-S19,30.00,PHP,1,0,,
LRT-1-S01-S20,30.00,PHP,1,0,,
LRT-1-S02-S01,15.00,PHP,1,0,,
LRT-1-S02-S03,15.00,PHP,1,0,,
LRT-1-S02-S04,15.00,PHP,1,0,,
LRT-1-S02-S05,15.00,PHP,1,0,,
LRT-1-S02-S06,20.00,PHP,1,0,,
LRT-1-S02-S07,20.00,PHP,1,0,,
LRT-1-S02-S08,20.00,PHP,1,0,,
LRT-1-S02-S09,20.00,PHP,1,0,,
LRT-1-S02-S10,20.00,PHP,1,0,,
LRT-1-S02-S11,20.00,PHP,1,0,,
LRT-1-S02-S12,20.00,PHP,1,0,,
LRT-1-S02-S13,30.00,PHP,1,0,,
LRT-1-S02-S14,30.00,PHP,1,0,,
LRT-1-S02-S15,30.00,PHP,1,0,,
LRT-1-S02-S16,30.00,PHP,1,0,,
LRT-1-S02-S17,30.00,PHP,1,0,,
LRT-1-S02-S18,30.00,PHP,1,0,,
LRT-1-S02-S19,30.00,PHP,1,0,,
LRT-1-S02-S20,30.00,PHP,1,0,,
LRT-1-S03-S01,15.00,PHP,1,0,,
LRT-1-S03-S02,15.00,PHP,1,0,,
LRT-1-S03-S04,15.00,PHP,1,0,,
LRT-1-S03-S05,15.00,PHP,1,0,,
LRT-1-S03-S06,15.00,PHP,1,0,,
LRT-1-S03-S07,15.00,PHP,1,0,,
LRT-1-S03-S08,15.00,PHP,1,0,,
LRT-1-S03-S09,20.00,PHP,1,0,,
LRT-1-S03-S10,20.00,PHP,1,0,,
LRT-1-S03-S11,20.00,PHP,1,0,,
LRT-1-S03-S12,20.00,PHP,1,0,,
LRT-1-S03-S13,20.00,PHP,1,0,,
LRT-1-S03-S14,20.00,PHP,1,0,,
LRT-1-S03-S15,30.00,PHP,1,0,,
LRT-1-S03-S16,30.00,PHP,1,0,,
LRT-1-S03-S17,30.00,PHP,1,0,,
LRT-1-S03-S18,30.00,PHP,1,0,,
LRT-1-S03-S19,30.00,PHP,1,0,,
LRT-1-S03-S20,30.00,PHP,1,0,,
LRT-1-S04-S01,20.00,PHP,1,0,,
LRT-1-S04-S02,15.00,PHP,1,0,,
LRT-1-S04-S03,15.00,PHP,1,0,,
LRT-1-S04-S05,15.00,PHP,1,0,,
LRT-1-S04-S06,15.00,PHP,1,0,,
LRT-1-S04-S07,15.00,PHP,1,0,,
LRT-1-S04-S08,15.00,PHP,1,0,,
LRT-1-S04-S09,15.00,PHP,1,0,,
LRT-1-S04-S10,15.00,PHP,1,0,,
LRT-1-S04-S11,20.00,PHP,1,0,,
LRT-1-S04-S12,20.00,PHP,1,0,,
LRT-1-S04-S13,20.00,PHP,1,0,,
LRT-1-S04-S14,20.00,PHP,1,0,,
LRT-1-S04-S15,20.00,PHP,1,0,,
LRT-1-S04-S16,30.00,PHP,1,0,,
LRT-1-S04-S17,30.00,PHP,1,0,,
LRT-1-S04-S18,30.00,PHP,1,0,,
LRT-1-S04-S19,30.00,PHP,1,0,,
LRT-1-S04-S20,30.00,PHP,1,0,,
LRT-1-S05-S01,20.00,PHP,1,0,,
LRT-1-S05-S02,15.00,PHP,1,0,,
LRT-1-S05-S03,15.00,PHP,1,0,,
LRT-1-S05-S04,15.00,PHP,1,0,,
LRT-1-S05-S06,15.00,PHP,1,0,,
LRT-1-S05-S07,15.00,PHP,1,0,,
LRT-1-S05-S08,15.00,PHP,1,0,,
LRT-1-S05-S09,15.00,PHP,1,0,,
LRT-1-S05-S10,15.00,PHP,1,0,,
LRT-1-S05-S11,15.00,PHP,1,0,,
LRT-1-S05-S12,20.00,PHP,1,0,,
LRT-1-S05-S13,20.00,PHP,1,0,,
LRT-1-S05-S14,20.00,PHP,1,0,,
LRT-1-S05-S15,20.00,PHP,1,0,,
LRT-1-S05-S16,20.00,PHP,1,0,,
LRT-1-S05-S17,30.00,PHP,1,0,,
LRT-1-S05-S18,30.00,PHP,1,0,,
LRT-1-S05-S19,30.00,PHP,1,0,,
LRT-1-S05-S20,30.00,PHP,1,0,,
LRT-1-S06-S01,20.00,PHP,1,0,,
LRT-1-S06-S02,20.00,PHP,1,0,,
LRT-1-S06-S03,15.00,PHP,1,0,,
LRT-1-S06-S04,15.00,PHP,1,0,,
LRT-1-S06-S05,15.00,PHP,1,0,,
LRT-1-S06-S07,15.00,PHP,1,0,,
LRT-1-S06-S08,15.00,PHP,1,0,,
LRT-1-S06-S09,15.00,PHP,1,0,,
LRT-1-S06-S10,15.00,PHP,1,0,,
LRT-1-S06-S11,15.00,PHP,1,0,,
LRT-1-S06-S12,15.00,PHP,1,0,,
LRT-1-S06-S13,20.00,PHP,1,0,,
LRT-1-S06-S14,20.00,PHP,1,0,,
LRT-1-S06-S15,20.00,PHP,1,0,,
LRT-1-S06-S16,20.00,PHP,1,0,,
LRT-1-S06-S17,20.00,PHP,1,0,,
LRT-1-S06-S18,30.00,PHP,1,0,,
LRT-1-S06-S19,30.00,PHP,1,0,,
LRT-1-S06-S20,30.00,PHP,1,0,,
LRT-1-S07-S01,20.00,PHP,1,0,,
LRT-1-S07-S02,20.00,PHP,1,0,,
LRT-1-S07-S03,15.00,PHP,1,0,,
LRT-1-S07-S04,15.00,PHP,1,0,,
LRT-1-S07-S05,15.00,PHP,1,0,,
LRT-1-S07-S06,15.00,PHP,1,0,,
LRT-1-S07-S08,15.00,PHP,1,0,,
LRT-1-S07-S09,15.00,PHP,1,0,,
LRT-1-S07-S10,15.00,PHP,1,0,,
LRT-1-S07-S11,15.00,PHP,1,0,,
LRT-1-S07-S12,15.00,PHP,1,0,,
LRT-1-S07-S13,20.00,PHP,1,0,,
LRT-1-S07-S14,20.00,PHP,1,0,,
LRT-1-S07-S15,20.00,PHP,1,0,,
LRT-1-S07-S16,20.00,PHP,1,0,,
LRT-1-S07-S17,20.00,PHP,1,0,,
LRT-1-S07-S18,20.00,PHP,1,0,,
LRT-1-S07-S19,30.00,PHP,1,0,,
LRT-1-S07-S20,30.00,PHP,1,0,,
LRT-1-S08-S01,20.00,PHP,1,0,,
LRT-1-S08-S02,20.00,PHP,1,0,,
LRT-1-S08-S03,15.00,PHP,1,0,,
LRT-1-S08-S04,15.00,PHP,1,0,,
LRT-1-S08-S05,15.00,PHP,1,0,,
LRT-1-S08-S06,15.00,PHP,1,0,,
LRT-1-S08-S07,15.00,PHP,1,0,,
LRT-1-S08-S09,15.00,PHP,1,0,,
LRT-1-S08-S10,15.00,PHP,1,0,,
LRT-1-S08-S11,15.00,PHP,1,0,,
LRT-1-S08-S12,15.00,PHP,1,0,,
LRT-1-S08-S13,15.00,PHP,1,0,,
LRT-1-S08-S14,20.00,PHP,1,0,,
LRT-1-S08-S15,20.00,PHP,1,0,,
LRT-1-S08-S16,20.00,PHP,1,0,,
LRT-1-S08-S17,20.00,PHP,1,0,,
LRT-1-S08-S18,20.00,PHP,1,0,,
LRT-1-S08-S19,20.00,PHP,1,0,,
LRT-1-S08-S20,30.00,PHP,1,0,,
LRT-1-S09-S01,20.00,PHP,1,0,,
LRT-1-S09-S02,20.00,PHP,1,0,,
LRT-1-S09-S03,20.00,PHP,1,0,,
LRT-1-S09-S04,15.00,PHP,1,0,,
LRT-1-S09-S05,15.00,PHP,1,0,,
LRT-1-S09-S06,15.00,PHP,1,0,,
LRT-1-S09-S07,15.00,PHP,1,0,,
LRT-1-S09-S08,15.00,PHP,1,0,,
LRT-1-S09-S10,15.00,PHP,1,0,,
LRT-1-S09-S11,15.00,PHP,1,0,,
LRT-1-S09-S12,15.00,PHP,1,0,,
LRT-1-S09-S13,15.00,PHP,1,0,,
LRT-1-S09-S14,15.00,PHP,1,0,,
LRT-1-S09-S15,20.00,PHP,1,0,,
LRT-1-S09-S16,20.00,PHP,1,0,,
LRT-1-S09-S17,20.00,PHP,1,0,,
LRT-1-S09-S18,20.00,PHP,1,0,,
LRT-1-S09-S19,20.00,PHP,1,0,,
LRT-1-S09-S20,20.00,PHP,1,0,,
LRT-1-S10-S01,30.00,PHP,1,0,,
LRT-1-S10-S02,20.00,PHP,1,0,,
LRT-1-S10-S03,20.00,PHP,1,0,,
LRT-1-S10-S04,15.00,PHP,1,0,,
LRT-1-S10-S05,15.00,PHP,1,0,,
LRT-1-S10-S06,15.00,PHP,1,0,,
LRT-1-S10-S07,15.00,PHP,1,0,,
LRT-1-S10-S08,15.00,PHP,1,0,,
LRT-1-S10-S09,15.00,PHP,1,0,,
LRT-1-S10-S11,15.00,PHP,1,0,,
LRT-1-S10-S12,15.00,PHP,1,0,,
LRT-1-S10-S13,15.00,PHP,1,0,,
LRT-1-S10-S14,15.00,PHP,1,0,,
LRT-1-S10-S15,15.00,PHP,1,0,,
LRT-1-S10-S16,20.00,PHP,1,0,,
LRT-1-S10-S17,20.00,PHP,1,0,,
LRT-1-S10-S18,20.00,PHP,1,0,,
LRT-1-S10-S19,20.00,PHP,1,0,,
LRT-1-S10-S20,20.00,PHP,1,0,,
LRT-1-S11-S01,30.00,PHP,1,0,,
LRT-1-S11-S02,20.00,PHP,1,0,,
LRT-1-S11-S03,20.00,PHP,1,0,,
LRT-1-S11-S04,20.00,PHP,1,0,,
LRT-1-S11-S05,15.00,PHP,1,0,,
LRT-1-S11-S06,15.00,PHP,1,0,,
LRT-1-S11-S07,15.00,PHP,1,0,,
LRT-1-S11-S08,15.00,PHP,1,0,,
LRT-1-S11-S09,15.00,PHP,1,0,,
LRT-1-S11-S10,15.00,PHP,1,0,,
LRT-1-S11-S12,15.00,PHP,1,0,,
LRT-1-S11-S13,15.00,PHP,1,0,,
LRT-1-S11-S14,15.00,PHP,1,0,,
LRT-1-S11-S15,15.00,PHP,1,0,,
LRT-1-S11-S16,15.00,PHP,1,0,,
LRT-1-S11-S17,20.00,PHP,1,0,,
LRT-1-S11-S18,20.00,PHP,1,0,,
LRT-1-S11-S19,20.00,PHP,1,0,,
LRT-1-S11-S20,20.00,PHP,1,0,,
LRT-1-S12-S01,30.00,PHP,1,0,,
LRT-1-S12-S02,20.00,PHP,1,0,,
LRT-1-S12-S03,20.00,PHP,1,0,,
LRT-1-S12-S04,20.00,PHP,1,0,,
LRT-1-S12-S05,20.00,PHP,1,0,,
LRT-1-S12-S06,15.00,PHP,1,0,,
LRT-1-S12-S07,15.00,PHP,1,0,,
LRT-1-S12-S08,15.00,PHP,1,0,,
LRT-1-S12-S09,15.00,PHP,1,0,,
LRT-1-S12-S10,15.00,PHP,1,0,,
LRT-1-S12-S11,15.00,PHP,1,0,,
LRT-1-S12-S13,15.00,PHP,1,0,,
LRT-1-S12-S14,15.00,PHP,1,0,,
LRT-1-S12-S15,15.00,PHP,1,0,,
LRT-1-S12-S16,15.00,PHP,1,0,,
LRT-1-S12-S17,20.00,PHP,1,0,,
LRT-1-S12-S18,20.00,PHP,1,0,,
LRT-1-S12-S19,20.00,PHP,1,0,,
LRT-1-S12-S20,20.00,PHP,1,0,,
LRT-1-S13-S01,30.00,PHP,1,0,,
LRT-1-S13-S02,30.00,PHP,1,0,,
LRT-1-S13-S03,20.00,PHP,1,0,,
LRT-1-S13-S04,20.00,PHP,1,0,,
LRT-1-S13-S05,20.00,PHP,1,0,,
LRT-1-S13-S06,20.00,PHP,1,0,,
LRT-1-S13-S07,20.00,PHP,1,0,,
LRT-1-S13-S08,15.00,PHP,1,0,,
LRT-1-S13-S09,15.00,PHP,1,0,,
LRT-1-S13-S10,15.00,PHP,1,0,,
LRT-1-S13-S11,15.00,PHP,1,0,,
LRT-1-S13-S12,15.00,PHP,1,0,,
LRT-1-S13-S14,15.00,PHP,1,0,,
LRT-1-S13-S15,15.00,PHP,1,0,,
LRT-1-S13-S16,15.00,PHP,1,0,,
LRT-1-S13-S17,15.00,PHP,1,0,,
LRT-1-S13-S18,15.00,PHP,1,0,,
LRT-1-S13-S19,20.00,PHP,1,0,,
LRT-1-S13-S20,20.00,PHP,1,0,,
LRT-1-S14-S01,30.00,PHP,1,0,,
LRT-1-S14-S02,30.00,PHP,1,0,,
LRT-1-S14-S03,20.00,PHP,1,0,,
LRT-1-S14-S04,20.00,PHP,1,0,,
LRT-1-S14-S05,20.00,PHP,1,0,,
LRT-1-S14-S06,20.00,PHP,1,0,,
LRT-1-S14-S07,20.00,PHP,1,0,,
LRT-1-S14-S08,20.00,PHP,1,0,,
LRT-1-S14-S09,15.00,PHP,1,0,,
LRT-1-S14-S10,15.00,PHP,1,0,,
LRT-1-S14-S11,15.00,PHP,1,0,,
LRT-1-S14-S12,15.00,PHP,1,0,,
LRT-1-S14-S13,15.00,PHP,1,0,,
LRT-1-S14-S15,15.00,PHP,1,0,,
LRT-1-S14-S16,15.00,PHP,1,0,,
LRT-1-S14-S17,15.00,PHP,1,0,,
LRT-1-S14-S18,15.00,PHP,1,0,,
LRT-1-S14-S19,15.00,PHP,1,0,,
LRT-1-S14-S20,20.00,PHP,1,0,,
LRT-1-S15-S01,30.00,PHP,1,0,,
LRT-1-S15-S02,30.00,PHP,1,0,,
LRT-1-S15-S03,30.00,PHP,1,0,,
LRT-1-S15-S04,20.00,PHP,1,0,,
LRT-1-S15-S05,20.00,PHP,1,0,,
LRT-1-S15-S06,20.00,PHP,1,0,,
LRT-1-S15-S07,20.00,PHP,1,0,,
LRT-1-S15-S08,20.00,PHP,1,0,,
LRT-1-S15-S09,20.00,PHP,1,0,,
LRT-1-S15-S10,15.00,PHP,1,0,,
LRT-1-S15-S11,15.00,PHP,1,0,,
LRT-1-S15-S12,15.00,PHP,1,0,,
LRT-1-S15-S13,15.00,PHP,1,0,,
LRT-1-S15-S14,15.00,PHP,1,0,,
LRT-1-S15-S16,15.00,PHP,1,0,,
LRT-1-S15-S17,15.00,PHP,1,0,,
LRT-1-S15-S18,15.00,PHP,1,0,,
LRT-1-S15-S19,15.00,PHP,1,0,,
LRT-1-S15-S20,15.00,PHP,1,0,,
LRT-1-S16-S01,30.00,PHP,1,0,,
LRT-1-S16-S02,30.00,PHP,1,0,,
LRT-1-S16-S03,30.00,PHP,1,0,,
LRT-1-S16-S04,30.00,PHP,1,0,,
LRT-1-S16-S05,20.00,PHP,1,0,,
LRT-1-S16-S06,20.00,PHP,1,0,,
LRT-1-S16-S07,20.00,PHP,1,0,,
LRT-1-S16-S08,20.00,PHP,1,0,,
LRT-1-S16-S09,20.00,PHP,1,0,,
LRT-1-S16-S10,20.00,PHP,1,0,,
LRT-1-S16-S11,15.00,PHP,1,0,,
LRT-1-S16-S12,15.00,PHP,1,0,,
LRT-1-S16-S13,15.00,PHP,1,0,,
LRT-1-S16-S14,15.00,PHP,1,0,,
LRT-1-S16-S15,15.00,PHP,1,0,,
LRT-1-S16-S17,15.00,PHP,1,0,,
LRT-1-S16-S18,15.00,PHP,1,0,,
LRT-1-S16-S19,15.00,PHP,1,0,,
LRT-1-S16-S20,15.00,PHP,1,0,,
LRT-1-S17-S01,30.00,PHP,1,0,,
LRT-1-S17-S02,30.00,PHP,1,0,,
LRT-1-S17-S03,30.00,PHP,1,0,,
LRT-1-S17-S04,30.00,PHP,1,0,,
LRT-1-S17-S05,30.00,PHP,1,0,,
LRT-1-S17-S06,20.00,PHP,1,0,,
LRT-1-S17-S07,20.00,PHP,1,0,,
LRT-1-S17-S08,20.00,PHP,1,0,,
LRT-1-S17-S09,20.00,PHP,1,0,,
LRT-1-S17-S10,20.00,PHP,1,0,,
LRT-1-S17-S11,20.00,PHP,1,0,,
LRT-1-S17-S12,20.00,PHP,1,0,,
LRT-1-S17-S13,15.00,PHP,1,0,,
LRT-1-S17-S14,15.00,PHP,1,0,,
LRT-1-S17-S15,15.00,PHP,1,0,,
LRT-1-S17-S16,15.00,PHP,1,0,,
LRT-1-S17-S18,15.00,PHP,1,0,,
LRT-1-S17-S19,15.00,PHP,1,0,,
LRT-1-S17-S20,15.00,PHP,1,0,,
LRT-1-S18-S01,30.00,PHP,1,0,,
LRT-1-S18-S02,30.00,PHP,1,0,,
LRT-1-S18-S03,30.00,PHP,1,0,,
LRT-1-S18-S04,30.00,PHP,1,0,,
LRT-1-S18-S05,30.00,PHP,1,0,,
LRT-1-S18-S06,30.00,PHP,1,0,,
LRT-1-S18-S07,20.00,PHP,1,0,,
LRT-1-S18-S08,20.00,PHP,1,0,,
LRT-1-S18-S09,20.00,PHP,1,0,,
LRT-1-S18-S10,20.00,PHP,1,0,,
LRT-1-S18-S11,20.00,PHP,1,0,,
LRT-1-S18-S12,20.00,PHP,1,0,,
LRT-1-S18-S13,15.00,PHP,1,0,,
LRT-1-S18-S14,15.00,PHP,1,0,,
LRT-1-S18-S15,15.00,PHP,1,0,,
LRT-1-S18-S16,15.00,PHP,1,0,,
LRT-1-S18-S17,15.00,PHP,1,0,,
LRT-1-S18-S19,15.00,PHP,1,0,,
LRT-1-S18-S20,15.00,PHP,1,0,,
LRT-1-S19-S01,30.00,PHP,1,0,,
LRT-1-S19-S02,30.00,PHP,1,0,,
LRT-1-S19-S03,30.00,PHP,1,0,,
LRT-1-S19-S04,30.00,PHP,1,0,,
LRT-1-S19-S05,30.00,PHP,1,0,,
LRT-1-S19-S06,30.00,PHP,1,0,,
LRT-1-S19-S07,30.00,PHP,1,0,,
LRT-1-S19-S08,20.00,PHP,1,0,,
LRT-1-S19-S09,20.00,PHP,1,0,,
LRT-1-S19-S10,20.00,PHP,1,0,,
LRT-1-S19-S11,20.00,PHP,1,0,,
LRT-1-S19-S12,20.00,PHP,1,0,,
LRT-1-S19-S13,20.00,PHP,1,0,,
LRT-1-S19-S14,15.00,PHP,1,0,,
LRT-1-S19-S15,15.00,PHP,1,0,,
LRT-1-S19-S16,15.00,PHP,1,0,,
LRT-1-S19-S17,15.00,PHP,1,0,,
LRT-1-S19-S18,15.00,PHP,1,0,,
LRT-1-S19-S20,15.00,PHP,1,0,,
LRT-1-S20-S01,30.00,PHP,1,0,,
LRT-1-S20-S02,30.00,PHP,1,0,,
LRT-1-S20-S03,30.00,PHP,1,0,,
LRT-1-S20-S04,30.00,PHP,1,0,,
LRT-1-S20-S05,30.00,PHP,1,0,,
LRT-1-S20-S06,30.00,PHP,1,0,,
LRT-1-S20-S07,30.00,PHP,1,0,,
LRT-1-S20-S08,30.00,PHP,1,0,,
LRT-1-S20-S09,20.00,PHP,1,0,,
LRT-1-S20-S10,20.00,PHP,1,0,,
LRT-1-S20-S11,20.00,PHP,1,0,,
LRT-1-S20-S12,20.00,PHP,1,0,,
LRT-1-S20-S13,20.00,PHP,1,0,,
LRT-1-S20-S14,20.00,PHP,1,0,,
LRT-1-S20-S15,15.00,PHP,1,0,,
LRT-1-S20-S16,15.00,PHP,1,0,,
LRT-1-S20-S17,15.00,PHP,1,0,,
LRT-1-S20-S18,15.00,PHP,1,0,,
LRT-1-S20-S19,15.00,PHP,1,0,,
MRT-3-S01-S02,13.00,PHP,1,0,,
MRT-3-S01-S03,13.00,PHP,1,0,,
MRT-3-S01-S04,16.00,PHP,1,0,,
MRT-3-S01-S05,16.00,PHP,1,0,,
MRT-3-S01-S06,20.00,PHP,1,0,,
MRT-3-S01-S07,20.00,PHP,1,0,,
MRT-3-S01-S08,20.00,PHP,1,0,,
MRT-3-S01-S09,24.00,PHP,1,0,,
MRT-3-S01-S10,24.00,PHP,1,0,,
MRT-3-S01-S11,24.00,PHP,1,0,,
MRT-3-S01-S12,28.00,PHP,1,0,,
MRT-3-S01-S13,28.00,PHP,1,0,,
MRT-3-S02-S01,13.00,PHP,1,0,,
MRT-3-S02-S03,13.00,PHP,1,0,,
MRT-3-S02-S04,13.00,PHP,1,0,,
MRT-3-S02-S05,16.00,PHP,1,0,,
MRT-3-S02-S06,16.00,PHP,1,0,,
MRT-3-S02-S07,20.00,PHP,1,0,,
MRT-3-S02-S08,20.00,PHP,1,0,,
MRT-3-S02-S09,20.00,PHP,1,0,,
MRT-3-S02-S10,24.00,PHP,1,0,,
MRT-3-S02-S11,24.00,PHP,1,0,,
MRT-3-S02-S12,24.00,PHP,1,0,,
MRT-3-S02-S13,28.00,PHP,1,0,,
MRT-3-S03-S01,13.00,PHP,1,0,,
MRT-3-S03-S02,13.00,PHP,1,0,,
MRT-3-S03-S04,13.00,PHP,1,0,,
MRT-3-S03-S05,13.00,PHP,1,0,,
MRT-3-S03-S06,16.00,PHP,1,0,,
MRT-3-S03-S07,16.00,PHP,1,0,,
MRT-3-S03-S08,20.00,PHP,1,0,,
MRT-3-S03-S09,20.00,PHP,1,0,,
MRT-3-S03-S10,20.00,PHP,1,0,,
MRT-3-S03-S11,24.00,PHP,1,0,,
MRT-3-S03-S12,24.00,PHP,1,0,,
MRT-3-S03-S13,24.00,PHP,1,0,,
MRT-3-S04-S01,16.00,PHP,1,0,,
MRT-3-S04-S02,13.00,PHP,1,0,,
MRT-3-S04-S03,13.00,PHP,1,0,,
MRT-3-S04-S05,13.00,PHP,1,0,,
MRT-3-S04-S06,13.00,PHP,1,0,,
MRT-3-S04-S07,16.00,PHP,1,0,,
MRT-3-S04-S08,16.00,PHP,1,0,,
MRT-3-S04-S09,20.00,PHP,1,0,,
MRT-3-S04-S10,20.00,PHP,1,0,,
MRT-3-S04-S11,20.00,PHP,1,0,,
MRT-3-S04-S12,24.00,PHP,1,0,,
MRT-3-S04-S13,24.00,PHP,1,0,,
MRT-3-S05-S01,16.00,PHP,1,0,,
MRT-3-S05-S02,16.00,PHP,1,0,,
MRT-3-S05-S03,13.00,PHP,1,0,,
MRT-3-S05-S04,13.00,PHP,1,0,,
MRT-3-S05-S06,13.00,PHP,1,0,,
MRT-3-S05-S07,13.00,PHP,1,0,,
MRT-3-S05-S08,16.00,PHP,1,0,,
MRT-3-S05-S09,16.00,PHP,1,0,,
MRT-3-S05-S10,20.00,PHP,1,0,,
MRT-3-S05-S11,20.00,PHP,1,0,,
MRT-3-S05-S12,20.00,PHP,1,0,,
MRT-3-S05-S13,24.00,PHP,1,0,,
MRT-3-S06-S01,20.00,PHP,1,0,,
MRT-3-S06-S02,16.00,PHP,1,0,,
MRT-3-S06-S03,16.00,PHP,1,0,,
MRT-3-S06-S04,13.00,PHP,1,0,,
MRT-3-S06-S05,13.00,PHP,1,0,,
MRT-3-S06-S07,13.00,PHP,1,0,,
MRT-3-S06-S08,13.00,PHP,1,0,,
MRT-3-S06-S09,16.00,PHP,1,0,,
MRT-3-S06-S10,16.00,PHP,1,0,,
MRT-3-S06-S11,20.00,PHP,1,0,,
MRT-3-S06-S12,20.00,PHP,1,0,,
MRT-3-S06-S13,20.00,PHP,1,0,,
MRT-3-S07-S01,20.00,PHP,1,0,,
MRT-3-S07-S02,20.00,PHP,1,0,,
MRT-3-S07-S03,16.00,PHP,1,0,,
MRT-3-S07-S04,16.00,PHP,1,0,,
MRT-3-S07-S05,13.00,PHP,1,0,,
MRT-3-S07-S06,13.00,PHP,1,0,,
MRT-3-S07-S08,13.00,PHP,1,0,,
MRT-3-S07-S09,13.00,PHP,1,0,,
MRT-3-S07-S10,16.00,PHP,1,0,,
MRT-3-S07-S11,16.00,PHP,1,0,,
MRT-3-S07-S12,20.00,PHP,1,0,,
MRT-3-S07-S13,20.00,PHP,1,0,,
MRT-3-S08-S01,20.00,PHP,1,0,,
MRT-3-S08-S02,20.00,PHP,1,0,,
MRT-3-S08-S03,20.00,PHP,1,0,,
MRT-3-S08-S04,16.00,PHP,1,0,,
MRT-3-S08-S05,16.00,PHP,1,0,,
MRT-3-S08-S06,13.00,PHP,1,0,,
MRT-3-S08-S07,13.00,PHP,1,0,,
MRT-3-S08-S09,13.00,PHP,1,0,,
MRT-3-S08-S10,13.00,PHP,1,0,,
MRT-3-S08-S11,16.00,PHP,1,0,,
MRT-3-S08-S12,16.00,PHP,1,0,,
MRT-3-S08-S13,20.00,PHP,1,0,,
MRT-3-S09-S01,24.00,PHP,1,0,,
MRT-3-S09-S02,20.00,PHP,1,0,,
MRT-3-S09-S03,20.00,PHP,1,0,,
MRT-3-S09-S04,20.00,PHP,1,0,,
MRT-3-S09-S05,16.00,PHP,1,0,,
MRT-3-S09-S06,16.00,PHP,1,0,,
MRT-3-S09-S07,13.00,PHP,1,0,,
MRT-3-S09-S08,13.00,PHP,1,0,,
MRT-3-S09-S10,13.00,PHP,1,0,,
MRT-3-S09-S11,13.00,PHP,1,0,,
MRT-3-S09-S12,16.00,PHP,1,0,,
MRT-3-S09-S13,16.00,PHP,1,0,,
MRT-3-S10-S01,24.00,PHP,1,0,,
MRT-3-S10-S02,24.00,PHP,1,0,,
MRT-3-S10-S03,20.00,PHP,1,0,,
MRT-3-S10-S04,20.00,PHP,1,0,,
MRT-3-S10-S05,20.00,PHP,1,0,,
MRT-3-S10-S06,16.00,PHP,1,0,,
MRT-3-S10-S07,16.00,PHP,1,0,,
MRT-3-S10-S08,13.00,PHP,1,0,,
MRT-3-S10-S09,13.00,PHP,1,0,,
MRT-3-S10-S11,13.00,PHP,1,0,,
MRT-3-S10-S12,13.00,PHP,1,0,,
MRT-3-S10-S13,16.00,PHP,1,0,,
MRT-3-S11-S01,24.00,PHP,1,0,,
MRT-3-S11-S02,24.00,PHP,1,0,,
MRT-3-S11-S03,24.00,PHP,1,0,,
MRT-3-S11-S04,20.00,PHP,1,0,,
MRT-3-S11-S05,20.00,PHP,1,0,,
MRT-3-S11-S06,20.00,PHP,1,0,,
MRT-3-S11-S07,16.00,PHP,1,0,,
MRT-3-S11-S08,16.00,PHP,1,0,,
MRT-3-S11-S09,13.00,PHP,1,0,,
MRT-3-S11-S10,13.00,PHP,1,0,,
MRT-3-S11-S12,13.00,PHP,1,0,,
MRT-3-S11-S13,13.00,PHP,1,0,,
MRT-3-S12-S01,28.00,PHP,1,0,,
MRT-3-S12-S02,24.00,PHP,1,0,,
MRT-3-S12-S03,24.00,PHP,1,0,,
MRT-3-S12-S04,24.00,PHP,1,0,,
MRT-3-S12-S05,20.00,PHP,1,0,,
MRT-3-S12-S06,20.00,PHP,1,0,,
MRT-3-S12-S07,20.00,PHP,1,0,,
MRT-3-S12-S08,16.00,PHP,1,0,,
MRT-3-S12-S09,16.00,PHP,1,0,,
MRT-3-S12-S10,13.00,PHP,1,0,,
MRT-3-S12-S11,13.00,PHP,1,0,,
MRT-3-S12-S13,13.00,PHP,1,0,,
MRT-3-S13-S01,28.00,PHP,1,0,,
MRT-3-S13-S02,28.00,PHP,1,0,,
MRT-3-S13-S03,24.00,PHP,1,0,,
MRT-3-S13-S04,24.00,PHP,1,0,,
MRT-3-S13-S05,24.00,PHP,1,0,,
MRT-3-S13-S06,20.00,PHP,1,0,,
MRT-3-S13-S07,20.00,PHP,1,0,,
MRT-3-S13-S08,20.00,PHP,1,0,,
MRT-3-S13-S09,16.00,PHP,1,0,,
MRT-3-S13-S10,16.00,PHP,1,0,,
MRT-3-S13-S11,13.00,PHP,1,0,,
MRT-3-S13-S12,13.00,PHP,1,0,,
